<?xml version="1.0" encoding="UTF-8" standalone="no"?>
<!-- Created with Inkscape (http://www.inkscape.org/) -->

<svg
   xmlns:dc="http://purl.org/dc/elements/1.1/"
   xmlns:cc="http://creativecommons.org/ns#"
   xmlns:rdf="http://www.w3.org/1999/02/22-rdf-syntax-ns#"
   xmlns:svg="http://www.w3.org/2000/svg"
   xmlns="http://www.w3.org/2000/svg"
   xmlns:xlink="http://www.w3.org/1999/xlink"
   xmlns:sodipodi="http://sodipodi.sourceforge.net/DTD/sodipodi-0.dtd"
   xmlns:inkscape="http://www.inkscape.org/namespaces/inkscape"
   width="41mm"
   height="41mm"
   viewBox="0 0 145.2756 145.2756"
   id="svg2"
   version="1.1"
   inkscape:version="0.91 r13725"
   sodipodi:docname="IMAGE_ICON_ABOUT_PRESSED.svg"
   inkscape:export-filename="/Users/Aliasbody/Projectos/Internos/Heebo/resources/images/hdpi/icon_about_pressed.png"
   inkscape:export-xdpi="223.02"
   inkscape:export-ydpi="223.02">
  <defs
     id="defs4">
    <linearGradient
       inkscape:collect="always"
       id="linearGradient8465">
      <stop
         style="stop-color:#db12db;stop-opacity:1;"
         offset="0"
         id="stop8467" />
      <stop
         id="stop8473"
         offset="0.76470536"
         style="stop-color:#e240e2;stop-opacity:1" />
      <stop
         style="stop-color:#db12db;stop-opacity:0;"
         offset="1"
         id="stop8469" />
    </linearGradient>
    <inkscape:path-effect
       effect="spiro"
       id="path-effect7868"
       is_visible="true" />
    <inkscape:path-effect
       is_visible="true"
       id="path-effect7864"
       effect="spiro" />
    <inkscape:path-effect
       is_visible="true"
       id="path-effect7860"
       effect="spiro" />
    <inkscape:path-effect
       effect="spiro"
       id="path-effect7844"
       is_visible="true" />
    <inkscape:path-effect
       effect="spiro"
       id="path-effect7836"
       is_visible="true" />
    <inkscape:path-effect
       is_visible="true"
       id="path-effect7831"
       effect="spiro" />
    <inkscape:path-effect
       effect="spiro"
       id="path-effect7827"
       is_visible="true" />
    <inkscape:path-effect
       effect="spiro"
       id="path-effect7823"
       is_visible="true" />
    <inkscape:path-effect
       effect="spiro"
       id="path-effect7819"
       is_visible="true" />
    <inkscape:path-effect
       effect="spiro"
       id="path-effect7815"
       is_visible="true" />
    <inkscape:path-effect
       effect="spiro"
       id="path-effect7811"
       is_visible="true" />
    <inkscape:path-effect
       effect="skeletal"
       id="path-effect7801"
       is_visible="true"
       pattern="M 0,5 C 0,2.24 2.24,0 5,0 7.76,0 10,2.24 10,5 10,7.76 7.76,10 5,10 2.24,10 0,7.76 0,5 Z"
       copytype="single_stretched"
       prop_scale="1"
       scale_y_rel="false"
       spacing="0"
       normal_offset="0"
       tang_offset="0"
       prop_units="false"
       vertical_pattern="false"
       fuse_tolerance="0" />
    <inkscape:path-effect
       effect="skeletal"
       id="path-effect7797"
       is_visible="true"
       pattern="M 0,5 C 0,2.24 2.24,0 5,0 7.76,0 10,2.24 10,5 10,7.76 7.76,10 5,10 2.24,10 0,7.76 0,5 Z"
       copytype="single_stretched"
       prop_scale="1"
       scale_y_rel="false"
       spacing="0"
       normal_offset="0"
       tang_offset="0"
       prop_units="false"
       vertical_pattern="false"
       fuse_tolerance="0" />
    <inkscape:path-effect
       effect="skeletal"
       id="path-effect7793"
       is_visible="true"
       pattern="M 0,5 C 0,2.24 2.24,0 5,0 7.76,0 10,2.24 10,5 10,7.76 7.76,10 5,10 2.24,10 0,7.76 0,5 Z"
       copytype="single_stretched"
       prop_scale="1"
       scale_y_rel="false"
       spacing="0"
       normal_offset="0"
       tang_offset="0"
       prop_units="false"
       vertical_pattern="false"
       fuse_tolerance="0" />
    <inkscape:path-effect
       effect="spiro"
       id="path-effect7791"
       is_visible="true" />
    <inkscape:path-effect
       effect="powerstroke"
       id="path-effect7787"
       is_visible="true"
       offset_points="0,0.5"
       sort_points="true"
       interpolator_type="Linear"
       interpolator_beta="0.2"
       start_linecap_type="zerowidth"
       linejoin_type="round"
       miter_limit="4"
       end_linecap_type="zerowidth"
       cusp_linecap_type="round" />
    <inkscape:path-effect
       effect="spiro"
       id="path-effect7785"
       is_visible="true" />
    <inkscape:path-effect
       effect="powerstroke"
       id="path-effect7781"
       is_visible="true"
       offset_points="0,0.5"
       sort_points="true"
       interpolator_type="Linear"
       interpolator_beta="0.2"
       start_linecap_type="zerowidth"
       linejoin_type="round"
       miter_limit="4"
       end_linecap_type="zerowidth"
       cusp_linecap_type="round" />
    <inkscape:path-effect
       effect="spiro"
       id="path-effect7779"
       is_visible="true" />
    <inkscape:path-effect
       effect="spiro"
       id="path-effect7775"
       is_visible="true" />
    <inkscape:path-effect
       effect="spiro"
       id="path-effect7771"
       is_visible="true" />
    <inkscape:path-effect
       effect="spiro"
       id="path-effect7767"
       is_visible="true" />
    <inkscape:path-effect
       effect="spiro"
       id="path-effect7763"
       is_visible="true" />
    <inkscape:path-effect
       effect="spiro"
       id="path-effect7759"
       is_visible="true" />
    <inkscape:path-effect
       effect="spiro"
       id="path-effect4695"
       is_visible="true" />
    <linearGradient
       inkscape:collect="always"
       xlink:href="#linearGradient8465"
       id="linearGradient8471"
       x1="105.78999"
       y1="424.95505"
       x2="105.83227"
       y2="414.51633"
       gradientUnits="userSpaceOnUse"
       gradientTransform="translate(-0.10569276,0.02130347)" />
    <filter
       inkscape:label="Drop Shadow"
       inkscape:menu="Shadows and Glows"
       inkscape:menu-tooltip="Inner colorized shadow, outer black shadow"
       style="color-interpolation-filters:sRGB"
       id="filter8547">
      <feGaussianBlur
         result="result0"
         in="SourceAlpha"
         stdDeviation="4"
         id="feGaussianBlur8549" />
      <feOffset
         dx="5"
         dy="5"
         result="result4"
         id="feOffset8551" />
      <feComposite
         in="SourceGraphic"
         in2="result4"
         operator="xor"
         result="fbSourceGraphic"
         id="feComposite8553" />
      <feColorMatrix
         result="fbSourceGraphicAlpha"
         in="fbSourceGraphic"
         values="0 0 0 -1 0 0 0 0 -1 0 0 0 0 -1 0 0 0 0 1 0"
         id="feColorMatrix9081" />
      <feFlood
         id="feFlood9083"
         flood-opacity="1"
         flood-color="rgb(0,0,0)"
         result="flood"
         in="fbSourceGraphic" />
      <feComposite
         id="feComposite9085"
         in2="fbSourceGraphic"
         in="flood"
         operator="in"
         result="composite1" />
      <feGaussianBlur
         id="feGaussianBlur9087"
         in="composite1"
         stdDeviation="3"
         result="blur" />
      <feOffset
         id="feOffset9089"
         dx="6"
         dy="6"
         result="offset" />
      <feComposite
         id="feComposite9091"
         in2="offset"
         in="fbSourceGraphic"
         operator="over"
         result="fbSourceGraphic" />
      <feColorMatrix
         result="fbSourceGraphicAlpha"
         in="fbSourceGraphic"
         values="0 0 0 -1 0 0 0 0 -1 0 0 0 0 -1 0 0 0 0 1 0"
         id="feColorMatrix9093" />
      <feFlood
         id="feFlood9095"
         flood-opacity="1"
         flood-color="rgb(0,0,0)"
         result="flood"
         in="fbSourceGraphic" />
      <feComposite
         id="feComposite9097"
         in2="fbSourceGraphic"
         in="flood"
         operator="in"
         result="composite1" />
      <feGaussianBlur
         id="feGaussianBlur9099"
         in="composite1"
         stdDeviation="3"
         result="blur" />
      <feOffset
         id="feOffset9101"
         dx="6"
         dy="6"
         result="offset" />
      <feComposite
         id="feComposite9103"
         in2="offset"
         in="fbSourceGraphic"
         operator="over"
         result="composite2" />
    </filter>
  </defs>
  <sodipodi:namedview
     id="base"
     pagecolor="#ffffff"
     bordercolor="#666666"
     borderopacity="1.0"
     inkscape:pageopacity="0.0"
     inkscape:pageshadow="2"
     inkscape:zoom="3.1753876"
     inkscape:cx="59.486355"
     inkscape:cy="76.202749"
     inkscape:document-units="px"
     inkscape:current-layer="g4665"
     showgrid="false"
     showguides="false"
     inkscape:guide-bbox="true"
     inkscape:window-width="1440"
     inkscape:window-height="852"
     inkscape:window-x="65"
     inkscape:window-y="37"
     inkscape:window-maximized="0"
     fit-margin-top="1"
     fit-margin-left="1"
     fit-margin-right="1"
     fit-margin-bottom="1">
    <sodipodi:guide
       position="201.06926,-83.896535"
       orientation="0,1"
       id="guide5794" />
    <sodipodi:guide
       position="612.44823,56.216712"
       orientation="1,0"
       id="guide5871" />
    <sodipodi:guide
       position="206.38715,8.3449583"
       orientation="0,1"
       id="guide5873" />
    <sodipodi:guide
       position="264.41558,62.959942"
       orientation="0,1"
       id="guide7729" />
    <sodipodi:guide
       position="152.82245,47.24198"
       orientation="1,0"
       id="guide7731" />
    <sodipodi:guide
       position="92.234006,69.855642"
       orientation="0,1"
       id="guide7735" />
    <sodipodi:guide
       position="61.931701,58.548812"
       orientation="1,0"
       id="guide7737" />
    <sodipodi:guide
       position="261.26472,0.46779713"
       orientation="0,1"
       id="guide7739" />
    <sodipodi:guide
       position="199.03514,89.479722"
       orientation="0,1"
       id="guide8275" />
  </sodipodi:namedview>
  <metadata
     id="metadata7">
    <rdf:RDF>
      <cc:Work
         rdf:about="">
        <dc:format>image/svg+xml</dc:format>
        <dc:type
           rdf:resource="http://purl.org/dc/dcmitype/StillImage" />
        <dc:title></dc:title>
      </cc:Work>
    </rdf:RDF>
  </metadata>
  <g
     inkscape:label="Camada 1"
     inkscape:groupmode="layer"
     id="layer1"
     transform="translate(-35.168164,-288.80473)">
    <g
       id="g4665"
       transform="matrix(14.898003,0,0,14.782673,-1473.4997,-5860.4863)">
      <rect
         style="opacity:1;fill:url(#linearGradient8471);fill-opacity:1;stroke:#901490;stroke-width:0.06738442;stroke-linecap:round;stroke-miterlimit:4;stroke-dasharray:none;stroke-dashoffset:0;stroke-opacity:1"
         id="rect8263"
         width="9.4153414"
         height="9.2962542"
         x="101.43229"
         y="416.25873"
         ry="2.7554359" />
      <path
         sodipodi:nodetypes="csccscscscscsscccccscccscscssscscsscccscsccsscscsccscssscccscc"
         inkscape:connector-curvature="0"
         id="path9117"
         d="m 105.76121,418.93842 c -0.0624,-0.0694 -0.0975,-0.10089 -0.11287,-0.10089 -0.0141,0 -0.0812,0.005 -0.15384,0.012 -0.0726,0.007 -0.13474,0.01 -0.13828,0.005 -0.005,-0.002 -0.0188,-0.0599 -0.0382,-0.1266 -0.0165,-0.0667 -0.0332,-0.12212 -0.0346,-0.12305 -0.002,-9.7e-4 -0.0673,-0.0188 -0.14652,-0.041 -0.079,-0.0212 -0.14511,-0.04 -0.14699,-0.0415 -0.002,-10e-4 0.012,-0.0597 0.0268,-0.12967 l 0.0302,-0.12731 -0.0655,-0.0512 c -0.0361,-0.028 -0.0864,-0.0668 -0.11239,-0.0858 -0.0256,-0.0188 -0.0468,-0.0382 -0.0468,-0.0427 0,-0.005 0.0395,-0.0537 0.0878,-0.10989 l 0.0878,-0.10186 -0.0212,-0.0441 c -0.012,-0.0243 -0.0309,-0.062 -0.0429,-0.0839 -0.0519,-0.0945 -0.0587,-0.11288 -0.0434,-0.12047 0.15359,-0.0748 0.22686,-0.11205 0.2374,-0.12023 0.01,-0.007 0.0141,-0.0551 0.0165,-0.13863 l 0.005,-0.12825 0.1536,-0.0141 c 0.0846,-0.01 0.15735,-0.0188 0.16206,-0.0236 0.005,-0.005 0.0339,-0.0546 0.0653,-0.11265 0.0313,-0.058 0.0603,-0.10796 0.0646,-0.11132 0.005,-0.005 0.0735,0.012 0.15407,0.0332 l 0.14628,0.0392 0.10927,-0.0802 c 0.06,-0.0441 0.11443,-0.0829 0.12061,-0.086 0.007,-0.005 0.0641,0.0328 0.12863,0.0802 l 0.1173,0.086 0.14582,-0.0389 c 0.0803,-0.0212 0.14935,-0.0363 0.15359,-0.0332 0.005,0.005 0.0349,0.0554 0.0678,0.11576 0.069,0.12636 0.049,0.11576 0.25577,0.13532 l 0.12133,0.012 0.007,0.13225 0.007,0.13226 0.12697,0.0622 c 0.0697,0.0341 0.12815,0.066 0.13027,0.0702 0.002,0.005 -0.0188,0.0509 -0.048,0.10377 -0.028,0.0526 -0.0554,0.10473 -0.0603,0.11576 -0.007,0.0141 0.007,0.038 0.0785,0.12165 0.0481,0.0561 0.0878,0.10473 0.0878,0.10821 0,0.005 -0.0507,0.046 -0.11263,0.0941 l -0.11263,0.0877 0.0307,0.1266 c 0.0165,0.0695 0.0288,0.12755 0.0268,0.12897 -0.002,10e-4 -0.0683,0.0188 -0.14723,0.0417 -0.079,0.0212 -0.14464,0.0397 -0.14582,0.0405 -9.9e-4,4.8e-4 -0.0165,0.0563 -0.0349,0.12331 -0.0165,0.067 -0.0353,0.12424 -0.0388,0.12707 -0.005,0.002 -0.0658,3.6e-4 -0.13804,-0.005 -0.0726,-0.007 -0.14181,-0.012 -0.15406,-0.012 -0.0141,0 -0.0495,0.0307 -0.11191,0.1009 -0.0492,0.0554 -0.0937,0.1009 -0.0987,0.1009 -0.005,0 -0.0671,-0.0273 -0.13804,-0.0604 -0.0712,-0.0332 -0.13616,-0.0582 -0.14463,-0.0554 -0.01,0.002 -0.0688,0.03 -0.13333,0.0604 -0.0651,0.0307 -0.1218,0.0554 -0.12651,0.0554 -0.005,0 -0.0492,-0.0453 -0.0992,-0.1009 z"
         style="fill:#000000;fill-opacity:0.58333333;stroke:none;stroke-opacity:1;filter:url(#filter8547)" />
      <path
         style="opacity:1;fill:#ffffff;fill-opacity:1;stroke:none;stroke-width:0.10107663;stroke-linecap:round;stroke-miterlimit:4;stroke-dasharray:none;stroke-dashoffset:0;stroke-opacity:1"
         d="m 106.03334,419.21256 c -0.0236,0 -0.0457,0.005 -0.0685,0.007 l -1.51419,0 c -0.0212,0 -0.037,0.0165 -0.037,0.037 l 0,0.45818 c 0,0.0212 0.0165,0.037 0.037,0.037 l 0.97403,0 c -0.002,0.0256 -0.007,0.0512 -0.007,0.0778 l 0,4.23623 c 0,0.0256 0.005,0.0502 0.007,0.075 l -0.98393,0 c -0.0212,0 -0.0386,0.0165 -0.0386,0.0387 l 0,0.47906 c 0,0.0212 0.0165,0.0387 0.0386,0.0387 l 4.09848,0 c 0.0212,0 0.0387,-0.0165 0.0387,-0.0387 l 0,-0.47906 c 0,-0.0212 -0.0165,-0.0387 -0.0387,-0.0387 l -1.04539,0 c 0.002,-0.0249 0.007,-0.0492 0.007,-0.075 l 0,-4.23623 c 0,-0.31114 -0.22874,-0.56466 -0.52718,-0.60803 -0.002,-2.9e-4 -0.002,-0.002 -0.005,-0.002 l -0.0165,0 c -0.0236,-0.002 -0.0449,-0.007 -0.0685,-0.007 l -0.85114,0 z"
         id="rect8256"
         inkscape:connector-curvature="0" />
      <path
         style="opacity:1;fill:#ffffff;fill-opacity:1;stroke:none;stroke-width:0.26953766;stroke-linecap:round;stroke-miterlimit:4;stroke-dasharray:none;stroke-dashoffset:0;stroke-opacity:1"
         id="path8277"
         sodipodi:type="arc"
         sodipodi:cx="103.27979"
         sodipodi:cy="421.46088"
         sodipodi:rx="1.0588162"
         sodipodi:ry="1.067928"
         sodipodi:start="0"
         sodipodi:end="3.1413092"
         sodipodi:open="true"
         d="m 104.33861,421.46088 a 1.0588162,1.067928 0 0 1 -1.05867,1.06792 1.0588162,1.067928 0 0 1 -1.05896,-1.06762" />
      <path
         d="m 110.27572,421.46088 a 1.0588162,1.067928 0 0 1 -1.05867,1.06792 1.0588162,1.067928 0 0 1 -1.05896,-1.06763 l 1.05881,-2.9e-4 z"
         sodipodi:end="3.1413141"
         sodipodi:start="0"
         sodipodi:ry="1.067928"
         sodipodi:rx="1.0588162"
         sodipodi:cy="421.46088"
         sodipodi:cx="109.2169"
         sodipodi:type="arc"
         id="path8279"
         style="opacity:1;fill:#ffffff;fill-opacity:1;stroke:none;stroke-width:0.26953766;stroke-linecap:round;stroke-miterlimit:4;stroke-dasharray:none;stroke-dashoffset:0;stroke-opacity:1" />
      <path
         style="opacity:1;fill:#000000;fill-opacity:1;stroke:none;stroke-width:4;stroke-linecap:round;stroke-miterlimit:4;stroke-dasharray:none;stroke-dashoffset:0;stroke-opacity:1"
         id="path8285"
         sodipodi:type="arc"
         sodipodi:cx="102.87637"
         sodipodi:cy="421.43277"
         sodipodi:rx="0.53945327"
         sodipodi:ry="0.54409558"
         sodipodi:start="0"
         sodipodi:end="3.1071236"
         sodipodi:open="true"
         d="m 103.41583,421.43277 a 0.53945327,0.54409558 0 0 1 -0.53016,0.54401 0.53945327,0.54409558 0 0 1 -0.54843,-0.52526" />
      <path
         d="m 109.34353,421.43671 a 0.53945327,0.54409558 0 0 1 -0.27532,0.47441 0.53945327,0.54409558 0 0 1 -0.54494,-0.01 0.53945327,0.54409558 0 0 1 -0.2583,-0.48405"
         sodipodi:open="true"
         sodipodi:end="3.1774049"
         sodipodi:start="0"
         sodipodi:ry="0.54409558"
         sodipodi:rx="0.53945327"
         sodipodi:cy="421.43671"
         sodipodi:cx="108.80408"
         sodipodi:type="arc"
         id="path8287"
         style="opacity:1;fill:#000000;fill-opacity:1;stroke:none;stroke-width:4;stroke-linecap:round;stroke-miterlimit:4;stroke-dasharray:none;stroke-dashoffset:0;stroke-opacity:1" />
      <path
         style="fill:#ffffff;fill-opacity:1;stroke:none;stroke-opacity:1;filter:url(#filter8547)"
         d="m 105.74749,418.82443 c -0.0624,-0.0694 -0.0975,-0.10089 -0.11287,-0.10089 -0.0141,0 -0.0812,0.005 -0.15384,0.012 -0.0726,0.007 -0.13474,0.01 -0.13828,0.005 -0.005,-0.002 -0.0188,-0.0599 -0.0382,-0.1266 -0.0165,-0.0667 -0.0332,-0.12212 -0.0346,-0.12305 -0.002,-9.7e-4 -0.0673,-0.0188 -0.14652,-0.041 -0.079,-0.0212 -0.14511,-0.04 -0.14699,-0.0415 -0.002,-10e-4 0.012,-0.0597 0.0268,-0.12967 l 0.0302,-0.12731 -0.0655,-0.0512 c -0.0361,-0.028 -0.0864,-0.0668 -0.11239,-0.0858 -0.0256,-0.0188 -0.0468,-0.0382 -0.0468,-0.0427 0,-0.005 0.0395,-0.0537 0.0878,-0.10989 l 0.0878,-0.10186 -0.0212,-0.0441 c -0.012,-0.0243 -0.0309,-0.062 -0.0429,-0.0839 -0.0519,-0.0945 -0.0587,-0.11288 -0.0434,-0.12047 0.15359,-0.0748 0.22686,-0.11205 0.2374,-0.12023 0.01,-0.007 0.0141,-0.0551 0.0165,-0.13863 l 0.005,-0.12825 0.1536,-0.0141 c 0.0846,-0.01 0.15735,-0.0188 0.16206,-0.0236 0.005,-0.005 0.0339,-0.0546 0.0653,-0.11265 0.0313,-0.058 0.0603,-0.10796 0.0646,-0.11132 0.005,-0.005 0.0735,0.012 0.15407,0.0332 l 0.14628,0.0392 0.10927,-0.0802 c 0.06,-0.0441 0.11443,-0.0829 0.12061,-0.086 0.007,-0.005 0.0641,0.0328 0.12863,0.0802 l 0.1173,0.086 0.14582,-0.0389 c 0.0803,-0.0212 0.14935,-0.0363 0.15359,-0.0332 0.005,0.005 0.0349,0.0554 0.0678,0.11576 0.069,0.12636 0.049,0.11576 0.25577,0.13532 l 0.12133,0.012 0.007,0.13225 0.007,0.13226 0.12697,0.0622 c 0.0697,0.0341 0.12815,0.066 0.13027,0.0702 0.002,0.005 -0.0188,0.0509 -0.048,0.10377 -0.028,0.0526 -0.0554,0.10473 -0.0603,0.11576 -0.007,0.0141 0.007,0.038 0.0785,0.12165 0.0481,0.0561 0.0878,0.10473 0.0878,0.10821 0,0.005 -0.0507,0.046 -0.11263,0.0941 l -0.11263,0.0877 0.0307,0.1266 c 0.0165,0.0695 0.0288,0.12755 0.0268,0.12897 -0.002,10e-4 -0.0683,0.0188 -0.14723,0.0417 -0.079,0.0212 -0.14464,0.0397 -0.14582,0.0405 -9.9e-4,4.8e-4 -0.0165,0.0563 -0.0349,0.12331 -0.0165,0.067 -0.0353,0.12424 -0.0388,0.12707 -0.005,0.002 -0.0658,3.6e-4 -0.13804,-0.005 -0.0726,-0.007 -0.14181,-0.012 -0.15406,-0.012 -0.0141,0 -0.0495,0.0307 -0.11191,0.1009 -0.0492,0.0554 -0.0937,0.1009 -0.0987,0.1009 -0.005,0 -0.0671,-0.0273 -0.13804,-0.0604 -0.0712,-0.0332 -0.13616,-0.0582 -0.14463,-0.0554 -0.01,0.002 -0.0688,0.03 -0.13333,0.0604 -0.0651,0.0307 -0.1218,0.0554 -0.12651,0.0554 -0.005,0 -0.0492,-0.0453 -0.0992,-0.1009 z"
         id="path8236"
         inkscape:connector-curvature="0"
         sodipodi:nodetypes="csccscscscscsscccccscccscscssscscsscccscsccsscscsccscssscccscc"
         inkscape:transform-center-x="0.62984605"
         inkscape:transform-center-y="1.2596935" />
    </g>
  </g>
</svg>
