<?xml version="1.0" encoding="UTF-8" standalone="no"?>
<!-- Created with Inkscape (http://www.inkscape.org/) -->

<svg
   xmlns:dc="http://purl.org/dc/elements/1.1/"
   xmlns:cc="http://creativecommons.org/ns#"
   xmlns:rdf="http://www.w3.org/1999/02/22-rdf-syntax-ns#"
   xmlns:svg="http://www.w3.org/2000/svg"
   xmlns="http://www.w3.org/2000/svg"
   xmlns:xlink="http://www.w3.org/1999/xlink"
   xmlns:sodipodi="http://sodipodi.sourceforge.net/DTD/sodipodi-0.dtd"
   xmlns:inkscape="http://www.inkscape.org/namespaces/inkscape"
   width="98.507797mm"
   height="98.507805mm"
   viewBox="0 0 349.04337 349.04337"
   id="svg2"
   version="1.1"
   inkscape:version="0.91 r13725"
   sodipodi:docname="triangle_down.svg"
   inkscape:export-filename="/Users/Aliasbody/Projectos/Internos/Heebo/resources/images/hdpi/triangle_down.png"
   inkscape:export-xdpi="51.57"
   inkscape:export-ydpi="51.57">
  <defs
     id="defs4">
    <inkscape:path-effect
       effect="spiro"
       id="path-effect5223"
       is_visible="true" />
    <inkscape:path-effect
       is_visible="true"
       id="path-effect5219"
       effect="spiro" />
    <inkscape:path-effect
       effect="spiro"
       id="path-effect5215"
       is_visible="true" />
    <inkscape:path-effect
       is_visible="true"
       id="path-effect5211"
       effect="spiro" />
    <inkscape:path-effect
       effect="spiro"
       id="path-effect5207"
       is_visible="true" />
    <inkscape:path-effect
       is_visible="true"
       id="path-effect5203"
       effect="spiro" />
    <inkscape:path-effect
       effect="spiro"
       id="path-effect5199"
       is_visible="true" />
    <linearGradient
       inkscape:collect="always"
       id="linearGradient5187">
      <stop
         style="stop-color:#7300e6;stop-opacity:1;"
         offset="0"
         id="stop5189" />
      <stop
         id="stop5195"
         offset="0.67043751"
         style="stop-color:#a459ef;stop-opacity:1" />
      <stop
         style="stop-color:#7300e6;stop-opacity:0;"
         offset="1"
         id="stop5191" />
    </linearGradient>
    <inkscape:path-effect
       effect="spiro"
       id="path-effect5173"
       is_visible="true" />
    <inkscape:path-effect
       is_visible="true"
       id="path-effect5169"
       effect="spiro" />
    <inkscape:path-effect
       effect="spiro"
       id="path-effect5165"
       is_visible="true" />
    <inkscape:path-effect
       is_visible="true"
       id="path-effect5161"
       effect="spiro" />
    <inkscape:path-effect
       effect="spiro"
       id="path-effect5157"
       is_visible="true" />
    <inkscape:path-effect
       is_visible="true"
       id="path-effect5153"
       effect="spiro" />
    <inkscape:path-effect
       effect="spiro"
       id="path-effect5149"
       is_visible="true" />
    <inkscape:path-effect
       is_visible="true"
       id="path-effect5035"
       effect="spiro" />
    <inkscape:path-effect
       effect="spiro"
       id="path-effect5031"
       is_visible="true" />
    <inkscape:path-effect
       effect="spiro"
       id="path-effect5027"
       is_visible="true" />
    <inkscape:path-effect
       effect="spiro"
       id="path-effect5023"
       is_visible="true" />
    <inkscape:path-effect
       effect="spiro"
       id="path-effect5019"
       is_visible="true" />
    <inkscape:path-effect
       effect="spiro"
       id="path-effect5015"
       is_visible="true" />
    <inkscape:path-effect
       effect="spiro"
       id="path-effect4695"
       is_visible="true" />
    <linearGradient
       inkscape:collect="always"
       xlink:href="#linearGradient5187"
       id="linearGradient5193"
       x1="123.03281"
       y1="418.67914"
       x2="124.52876"
       y2="440.26828"
       gradientUnits="userSpaceOnUse"
       gradientTransform="translate(-1.7629137,-0.08856821)" />
  </defs>
  <sodipodi:namedview
     id="base"
     pagecolor="#ffffff"
     bordercolor="#666666"
     borderopacity="1.0"
     inkscape:pageopacity="0.0"
     inkscape:pageshadow="2"
     inkscape:zoom="0.81899278"
     inkscape:cx="278.26139"
     inkscape:cy="125.79637"
     inkscape:document-units="px"
     inkscape:current-layer="g4665"
     showgrid="false"
     showguides="true"
     inkscape:guide-bbox="true"
     inkscape:window-width="1417"
     inkscape:window-height="674"
     inkscape:window-x="38"
     inkscape:window-y="67"
     inkscape:window-maximized="0"
     fit-margin-top="9.343395"
     fit-margin-left="5"
     fit-margin-right="5"
     fit-margin-bottom="9.343395" />
  <metadata
     id="metadata7">
    <rdf:RDF>
      <cc:Work
         rdf:about="">
        <dc:format>image/svg+xml</dc:format>
        <dc:type
           rdf:resource="http://purl.org/dc/dcmitype/StillImage" />
        <dc:title></dc:title>
      </cc:Work>
    </rdf:RDF>
  </metadata>
  <g
     inkscape:label="Camada 1"
     inkscape:groupmode="layer"
     id="layer1"
     transform="translate(-201.12955,-240.94145)">
    <g
       id="g4665"
       transform="matrix(14.898003,0,0,14.782673,-1473.4997,-5860.4863)">
      <path
         inkscape:connector-curvature="0"
         id="path5140"
         d="m 134.53964,415.84275 c -0.004,-0.24174 -0.045,-0.43572 -0.12011,-0.57422 -0.0339,-0.065 -0.13621,-0.12148 -0.20113,-0.18269 l -20.02551,0 c -0.17526,0.11467 -0.31571,0.23621 -0.38531,0.36453 -0.0743,0.13424 -0.10475,0.3267 -0.10735,0.55641 l 9.75071,17.662 c 0.18559,0.2725 0.45336,0.34239 0.6379,0.3407 0.1413,-10e-4 0.3254,-0.0276 0.54352,-0.23555 l 9.88965,-17.76715 c 0.002,-0.0505 0.0128,-0.11851 0.0128,-0.16441 z"
         style="fill:url(#linearGradient5193);fill-opacity:1;stroke:#420086;stroke-width:0.2088917;stroke-linecap:round;stroke-miterlimit:4;stroke-dasharray:none;stroke-dashoffset:0;stroke-opacity:0.85882353"
         sodipodi:nodetypes="cccccccccccc" />
      <path
         style="fill:#000000;fill-opacity:1;stroke:none;stroke-width:1.5;stroke-linecap:round;stroke-miterlimit:4;stroke-dasharray:none;stroke-dashoffset:0;stroke-opacity:0.83921569"
         d="m 114.55985,415.36402 c -0.16889,0.0956 -0.30425,0.19713 -0.37172,0.3042 -0.0708,0.11219 -0.10104,0.27275 -0.10265,0.46376 l 1.70873,3.02757 c 0.45369,-0.53528 0.96618,-1.37311 1.41916,-1.90905 l 1.35578,1.73723 1.28568,-1.83257 1.50052,2.03297 1.58165,-1.8039 1.28021,1.73677 1.28564,-1.76543 1.42541,1.69877 1.38489,-1.6856 1.32625,1.5519 1.5472,-1.57535 1.30107,1.71686 1.6698,-2.93031 c 0.001,-0.0425 0.0128,-0.0989 0.0128,-0.13765 l 0.004,0 c -0.004,-0.20095 -0.0428,-0.36366 -0.1159,-0.47919 -0.0339,-0.054 -0.13196,-0.10117 -0.19433,-0.15166 z"
         id="path4701"
         inkscape:connector-curvature="0"
         sodipodi:nodetypes="cccccccccccccccccccccc" />
      <ellipse
         style="opacity:1;fill:#ffffff;fill-opacity:1;stroke:none;stroke-width:0.06738441;stroke-linecap:round;stroke-linejoin:miter;stroke-miterlimit:4;stroke-dasharray:none;stroke-dashoffset:0;stroke-opacity:1"
         id="path5175"
         cx="122.37659"
         cy="427.13028"
         rx="1.1781113"
         ry="1.1887327" />
      <ellipse
         ry="0.58183956"
         rx="0.57664073"
         cy="427.28198"
         cx="122.37659"
         id="ellipse5179"
         style="opacity:1;fill:#000000;fill-opacity:1;stroke:none;stroke-width:0.06738441;stroke-linecap:round;stroke-linejoin:miter;stroke-miterlimit:4;stroke-dasharray:none;stroke-dashoffset:0;stroke-opacity:1" />
      <ellipse
         style="opacity:1;fill:#000000;fill-opacity:1;stroke:none;stroke-width:0.06738441;stroke-linecap:round;stroke-linejoin:miter;stroke-miterlimit:4;stroke-dasharray:none;stroke-dashoffset:0;stroke-opacity:1"
         id="ellipse5181"
         cx="124.10583"
         cy="430.49347"
         rx="0.80219132"
         ry="0.80942363" />
      <ellipse
         ry="1.1887327"
         rx="1.1781113"
         cy="427.13028"
         cx="125.9353"
         id="ellipse5183"
         style="opacity:1;fill:#ffffff;fill-opacity:1;stroke:none;stroke-width:0.06738441;stroke-linecap:round;stroke-linejoin:miter;stroke-miterlimit:4;stroke-dasharray:none;stroke-dashoffset:0;stroke-opacity:1" />
      <ellipse
         style="opacity:1;fill:#000000;fill-opacity:1;stroke:none;stroke-width:0.06738441;stroke-linecap:round;stroke-linejoin:miter;stroke-miterlimit:4;stroke-dasharray:none;stroke-dashoffset:0;stroke-opacity:1"
         id="ellipse5185"
         cx="125.9353"
         cy="427.28198"
         rx="0.57664073"
         ry="0.58183956" />
      <path
         style="fill:none;fill-rule:evenodd;stroke:#7b7878;stroke-width:0.06738441px;stroke-linecap:round;stroke-linejoin:miter;stroke-opacity:1"
         d="m 115.03154,417.38534 0.78901,1.30532"
         id="path5197"
         inkscape:path-effect="#path-effect5199"
         inkscape:original-d="m 115.03154,417.38534 c 0.21097,0.46326 0.56634,0.94986 0.78901,1.30532"
         inkscape:connector-curvature="0" />
      <path
         inkscape:connector-curvature="0"
         inkscape:original-d="m 117.62834,417.45118 c 0.26394,0.43482 0.67399,0.87558 0.93687,1.20196"
         inkscape:path-effect="#path-effect5203"
         id="path5201"
         d="m 117.62834,417.45118 0.93687,1.20196"
         style="fill:none;fill-rule:evenodd;stroke:#7b7878;stroke-width:0.06738441px;stroke-linecap:round;stroke-linejoin:miter;stroke-opacity:1" />
      <path
         style="fill:none;fill-rule:evenodd;stroke:#7b7878;stroke-width:0.06738441px;stroke-linecap:round;stroke-linejoin:miter;stroke-opacity:1"
         d="m 120.42546,417.58833 0.92557,1.2108"
         id="path5205"
         inkscape:path-effect="#path-effect5207"
         inkscape:original-d="m 120.42546,417.58833 c 0.25985,0.4373 0.66576,0.88194 0.92557,1.2108"
         inkscape:connector-curvature="0" />
      <path
         inkscape:connector-curvature="0"
         inkscape:original-d="m 123.34733,417.53418 c 0.24872,0.44383 0.64327,0.89874 0.89469,1.23416"
         inkscape:path-effect="#path-effect5211"
         id="path5209"
         d="m 123.34733,417.53418 0.89469,1.23416"
         style="fill:none;fill-rule:evenodd;stroke:#7b7878;stroke-width:0.06738441px;stroke-linecap:round;stroke-linejoin:miter;stroke-opacity:1" />
      <path
         style="fill:none;fill-rule:evenodd;stroke:#7b7878;stroke-width:0.06738441px;stroke-linecap:round;stroke-linejoin:miter;stroke-opacity:1"
         d="m 125.95689,417.54115 0.99429,1.15414"
         id="path5213"
         inkscape:path-effect="#path-effect5215"
         inkscape:original-d="m 125.95689,417.54115 c 0.28479,0.42123 0.71583,0.84117 0.99429,1.15414"
         inkscape:connector-curvature="0" />
      <path
         inkscape:connector-curvature="0"
         inkscape:original-d="m 128.71834,417.49546 c 0.27554,0.42744 0.69729,0.85684 0.96885,1.17592"
         inkscape:path-effect="#path-effect5219"
         id="path5217"
         d="m 128.71834,417.49546 0.96885,1.17592"
         style="fill:none;fill-rule:evenodd;stroke:#7b7878;stroke-width:0.06738441px;stroke-linecap:round;stroke-linejoin:miter;stroke-opacity:1" />
      <path
         style="fill:none;fill-rule:evenodd;stroke:#7b7878;stroke-width:0.06738441px;stroke-linecap:round;stroke-linejoin:miter;stroke-opacity:1"
         d="m 131.57077,417.50722 0.91563,1.21846"
         id="path5221"
         inkscape:path-effect="#path-effect5223"
         inkscape:original-d="m 131.57077,417.50722 c 0.25626,0.43945 0.65852,0.88745 0.91563,1.21846"
         inkscape:connector-curvature="0" />
    </g>
  </g>
</svg>
